…
### Sonst: Äpfel-und-Birnen-Problem beim Aufbau des Gesamtdatensatze


```{r, eval=FALSE, echo=FALSE}
metadata_raw |> 
  dplyr::filter(ubb) |>
  dplyr::select(vars, text) |> 
  dplyr::arrange(vars) |> 
  dplyr::distinct()
```


```{r, eval = FALSE}
# # A tibble: 161 × 2
#    vars      text                                                                          
#    <chr>     <chr>                                                                         
#  1 A112aXA1a "Die LK achtet konsequent auf die Einhaltung von Regeln."                     
#  2 A112aXA1a "Die LK achtet auf die Einhaltung von Regeln."                                
#  3 A112bXA1a "Die SuS beachten die vereinbarten Regeln."                                   
#  4 A113XA1a  "Die LK geht mit Blick auf die Gruppe und den Einzelnen angemessen mit Störun…
#  5 A113XA1a  "Die LK geht angemessen mit Störungen um."                                    
#  6 A114XA1a  "Die SuS reagieren auf Signale oder Hinweise der LK."                         
#  7 A114XA1a  "Die SuS beachten die vereinbarten Regeln."                                   
#  8 A11XA1    "Der Unterricht wird durch Störungen nicht beeinträchtigt."                   
#  9 A11XA1    "<p style=\"font-size:26px;\"><b>Der Unterricht wird durch Störungen nicht be…
# 10 A11XA1    "<p style=\"font-size:26px;\"><b>Der Unterricht wird durch Störungen nicht be…
# # ℹ 151 more rows
# # ℹ Use `print(n = ...)` to see more rows
```
…
